@startuml
sprite $building_o [48x48/16] {
000000000000000000000000000000000000000000000000
000000000000000000000000000000000000000000000000
000000000000000000000000000000000000000000000000
00000002DFFFFFFFFFFFFFFFFFFFFFFFFFFFFFFD20000000
00000007FFFFFFFFFFFFFFFFFFFFFFFFFFFFFFFF70000000
00000008FFFFFFFFFFFFFFFFFFFFFFFFFFFFFFFF80000000
00000008FF8000000000000000000000000008FF80000000
00000008FF8000000000000000000000000008FF80000000
00000008FF8000000000000000000000000008FF80000000
00000008FF8005FF5005FF5005FF5005FF5008FF80000000
00000008FF8008FF8008FF8008FF8008FF8008FF80000000
00000008FF8005FF5005FF5005FF5005FF5008FF80000000
00000008FF8000000000000000000000000008FF80000000
00000008FF8000000000000000000000000008FF80000000
00000008FF8000000000000000000000000008FF80000000
00000008FF8005FF5005FF5005FF5005FF5008FF80000000
00000008FF8008FF8008FF8008FF8008FF8008FF80000000
00000008FF8005FF5005FF5005FF5005FF5008FF80000000
00000008FF8000000000000000000000000008FF80000000
00000008FF8000000000000000000000000008FF80000000
00000008FF8000000000000000000000000008FF80000000
00000008FF8005FF5005FF5005FF5005FF5008FF80000000
00000008FF8008FF8008FF8008FF8008FF8008FF80000000
00000008FF8005FF5005FF5005FF5005FF5008FF80000000
00000008FF8000000000000000000000000008FF80000000
00000008FF8000000000000000000000000008FF80000000
00000008FF8000000000000000000000000008FF80000000
00000008FF8005FF5005FF5005FF5005FF5008FF80000000
00000008FF8008FF8008FF8008FF8008FF8008FF80000000
00000008FF8005FF5005FF5005FF5005FF5008FF80000000
00000008FF8000000000000000000000000008FF80000000
00000008FF8000000000000000000000000008FF80000000
00000008FF8000000000000000000000000008FF80000000
00000008FF8005FF5000000000000005FF5008FF80000000
00000008FF8008FF8000000000000008FF8008FF80000000
00000008FF8005FF5000000000000005FF5008FF80000000
00000008FF8000000005FFFFFFFF5000000008FF80000000
00000008FF8000000008FFFFFFFF8000000008FF80000000
00000008FF8000000008FFFFFFFF8000000008FF80000000
00000008FF8000000008FFFFFFFF8000000008FF80000000
00000008FF8000000008FFFFFFFF8000000008FF80000000
00000008FF8000000008FFFFFFFF8000000008FF80000000
00000008FFFFFFFFFFFFFFFFFFFFFFFFFFFFFFFF80000000
00000007FFFFFFFFFFFFFFFFFFFFFFFFFFFFFFFF70000000
00000002DFFFFFFFFFFFFFFFFFFFFFFFFFFFFFFD20000000
000000000000000000000000000000000000000000000000
000000000000000000000000000000000000000000000000
000000000000000000000000000000000000000000000000
}

sprite $gears [48x48/16] {
000000000000000000000000000000000000000000000000
000000000000000000000000000000000000000000000000
000000000000000000000000000000000000000000000000
000000000000000000000000000000000160000071000000
000000000000000000000000000000008FF90008FF700000
00000000000000000000000000000006FFFF605FFFF60000
00000000000000000000000000000001FFFFFFFFFFF10000
00000000000000000000000000000000BFFFFFFFFFA00000
000000000000000000000000000000007FFFFFFFFF700000
00000000000004FFFFF4000000000024EFFC303CFFE42000
00000000000008FFFFF8000000006FFFFFE10001EFFFFF60
0000000120000AFFFFFA000021008FFFFF9000009FFFFF80
0000003EF8000DFFFFFD0006FE208FFFFF9000009FFFFF80
000003FFFFA39FFFFFFF93BFFFE26FFFFFE10001EFFFFF60
00002FFFFFFFFFFFFFFFFFFFFFFE2024EFFC303CFFE42000
0000CFFFFFFFFFFFFFFFFFFFFFFFA0007FFFFFFFFF700000
00005FFFFFFFFFFFFFFFFFFFFFFF4000BFFFFFFFFFB00000
000008FFFFFFFFFFFFFFFFFFFFF70001FFFFFFFFFFF10000
000000CFFFFFFC51015CFFFFFFC00006FFFF606FFFF60000
000000EFFFFF900000009FFFFFE000008FF90009FF800000
000248FFFFFA000000000AFFFFF830000170000071000000
05FFFFFFFFF10000000001FFFFFFFFE40000000000000000
08FFFFFFFFB00000000000BFFFFFFFF80000000000000000
08FFFFFFFF8000000000008FFFFFFFF80000000000000000
08FFFFFFFF8000000000008FFFFFFFF80000000000000000
08FFFFFFFFB00000000000BFFFFFFFF80000000000000000
04EFFFFFFFF10000000001FFFFFFFFF50000000000000000
000037FFFFFA000000000AFFFFF842000160000071000000
000000EFFFFF900000009FFFFFE000008FF90008FF700000
000000CFFFFFFC51015CFFFFFFC00006FFFF605FFFF60000
000007FFFFFFFFFFFFFFFFFFFFF80001FFFFFFFFFFF10000
00004FFFFFFFFFFFFFFFFFFFFFFF5000BFFFFFFFFFB00000
0000AFFFFFFFFFFFFFFFFFFFFFFFC0007FFFFFFFFF700000
00002EFFFFFFFFFFFFFFFFFFFFFE2024EFFC303CFFE42000
000002EFFFB39FFFFFFF93AFFFF36FFFFFE10001EFFFFF60
0000002EF8000DFFFFFD0006FE308FFFFF9000009FFFFF80
0000000120000AFFFFFA000021008FFFFF9000009FFFFF80
00000000000008FFFFF8000000006FFFFFE10001EFFFFF60
00000000000004FFFFF4000000000024EFFC303CFFE42000
000000000000000000000000000000007FFFFFFFFF700000
00000000000000000000000000000000BFFFFFFFFFB00000
00000000000000000000000000000001FFFFFFFFFFF10000
00000000000000000000000000000006FFFF606FFFF60000
000000000000000000000000000000008FF90009FF800000
000000000000000000000000000000000170000071000000
000000000000000000000000000000000000000000000000
000000000000000000000000000000000000000000000000
000000000000000000000000000000000000000000000000
}

sprite $actor [48x48/16] {
000000000000000000000000000000000000000000000000
000000000000000000000000000000000000000000000000
000000000000000000000000000000000000000000000000
000000000000000000000003300000000000000000000000
0000000000000000000009FFFF9000000000000000000000
00000000000000000000DFFFFFFD00000000000000000000
00000000000000000009FFFFFFFF90000000000000000000
0000000000000000000FFFFFFFFFF0000000000000000000
0000000000000000003FFFFFFFFFF3000000000000000000
0000000000000000003FFFFFFFFFF3000000000000000000
0000000000000000000FFFFFFFFFF0000000000000000000
00000000000000000009FFFFFFFF90000000000000000000
00000000000000000000DFFFFFFD00000000000000000000
0000000000000000000009FFFF9000000000000000000000
000000000000000000000003300000000000000000000000
000000000000000007DFFFFFFFFFFD700000000000000000
0000000000000000BFFFFFFFFFFFFFFB0000000000000000
0000000000000009FFFFFFFFFFFFFFFF9000000000000000
000000000000004FFFFFFFFFFFFFFFFFF400000000000000
00000000000000EFFFFFFFFFFFFFFFFFFE10000000000000
00000000000009FFFFFFFFFFFFFFFFFFFF90000000000000
0000000000004FFFFF28FFFFFFFF82FFFFF4000000000000
000000000000EFFFF708FFFFFFFF807FFFFE100000000000
000000000009FFFFC008FFFFFFFF800CFFFF900000000000
00000000004FFFFF200BFFFFFFFFB002FFFFF40000000000
0000000000EFFFF7005FFFFFFFFFF5007FFFFE1000000000
0000000009FFFFC000EFFFFFFFFFFE000CFFFF9000000000
000000000FFFFF2008FFFFFFFFFFFF8002FFFFF000000000
000000000DFFF7002FFFFFFFFFFFFFF2007FFFD000000000
0000000003DE8000BFFFFFFFFFFFFFFB0008ED3000000000
0000000000000005FFFFFFFFFFFFFFFF5000000000000000
000000000000000EFFFFFFFFFFFFFFFFE000000000000000
000000000000008FFFFFFFFFFFFFFFFFF800000000000000
00000000000002FFFFFFFFFFFFFFFFFFFF20000000000000
00000000000007FFFFFFFFFFFFFFFFFFFF70000000000000
00000000000002DFFFFFFFFFFFFFFFFFFD20000000000000
000000000000000000000000000000000000000000000000
000000000000000000000000000000000000000000000000
000000000000000000000000000000000000000000000000
}

sprite $ma_wallet [48x48/16] {
000000000000000000000000000000000000000000000000
000000000000000000000000000000000000000000000000
000000000000000000000000000000000000000000000000
000000000000000000000000000000000000000000000000
000000000000000000000000000000000000000000000000
000000000000000000000000000000000000000000000000
00000002BFFFFFFFFFFFFFFFFFFFFFFFFFFFFFFA20000000
0000001EFFFFFFFFFFFFFFFFFFFFFFFFFFFFFFFFE2000000
000000AFFFFFFFFFFFFFFFFFFFFFFFFFFFFFFFFFFA000000
000000FFFFFFFFFFFFFFFFFFFFFFFFFFFFFFFFFFFF000000
000000FFFFFFFFFFFFFFFFFFFFFFFFFFFFFFFFFFFF000000
000000FFFFFFFFFFFFFFFFFFFFFFFFFFFFFFFFFFFF000000
000000FFFFFFFFFFFFFFFD50000000000000000000000000
000000FFFFFFFFFFFFFFD100000000000000000000000000
000000FFFFFFFFFFFFFF5000000000000000000000000000
000000FFFFFFFFFFFFFF0000000000000000000000000000
000000FFFFFFFFFFFFFF0000FFFFFFFFFFFFFFFFFFFF0000
000000FFFFFFFFFFFFFF0000FFFFFFFFFFFFFFFFFFFF0000
000000FFFFFFFFFFFFFF0000FFFFFFFFFFFFFFFFFFFF0000
000000FFFFFFFFFFFFFF0000FFFFFFFFFFFFFFFFFFFF0000
000000FFFFFFFFFFFFFF0000FFFFFFFFFFFFFFFFFFFF0000
000000FFFFFFFFFFFFFF0000FFFFFF7117FFFFFFFFFF0000
000000FFFFFFFFFFFFFF0000FFFFF700007FFFFFFFFF0000
000000FFFFFFFFFFFFFF0000FFFFF100001FFFFFFFFF0000
000000FFFFFFFFFFFFFF0000FFFFF100001FFFFFFFFF0000
000000FFFFFFFFFFFFFF0000FFFFF700007FFFFFFFFF0000
000000FFFFFFFFFFFFFF0000FFFFFF7117FFFFFFFFFF0000
000000FFFFFFFFFFFFFF0000FFFFFFFFFFFFFFFFFFFF0000
000000FFFFFFFFFFFFFF0000FFFFFFFFFFFFFFFFFFFF0000
000000FFFFFFFFFFFFFF0000FFFFFFFFFFFFFFFFFFFF0000
000000FFFFFFFFFFFFFF0000FFFFFFFFFFFFFFFFFFFF0000
000000FFFFFFFFFFFFFF0000FFFFFFFFFFFFFFFFFFFF0000
000000FFFFFFFFFFFFFF0000000000000000000000000000
000000FFFFFFFFFFFFFF5000000000000000000000000000
000000FFFFFFFFFFFFFFD100000000000000000000000000
000000FFFFFFFFFFFFFFFD50000000000000000000000000
000000FFFFFFFFFFFFFFFFFFFFFFFFFFFFFFFFFFFF000000
000000FFFFFFFFFFFFFFFFFFFFFFFFFFFFFFFFFFFF000000
000000FFFFFFFFFFFFFFFFFFFFFFFFFFFFFFFFFFFF000000
000000AFFFFFFFFFFFFFFFFFFFFFFFFFFFFFFFFFFA000000
0000001EFFFFFFFFFFFFFFFFFFFFFFFFFFFFFFFFE2000000
00000002AFFFFFFFFFFFFFFFFFFFFFFFFFFFFFFA20000000
000000000000000000000000000000000000000000000000
000000000000000000000000000000000000000000000000
000000000000000000000000000000000000000000000000
000000000000000000000000000000000000000000000000
000000000000000000000000000000000000000000000000
000000000000000000000000000000000000000000000000
}

skinparam ActorBorderColor #576bb5
skinparam ActorBackgroundColor #161c32
skinparam EntityBorderColor #576bb5
skinparam EntityBackgroundColor #161c32
skinparam DatabaseBorderColor #576bb5
skinparam DatabaseBackgroundColor #161c32
skinparam ControlBorderColor #576bb5
skinparam ControlBackgroundColor #161c32
skinparam ParticipantBorderColor #576bb5
skinparam ParticipantBackgroundColor #161c32
skinparam ParticipantFontColor #FFFFFF

skinparam NoteBorderColor #161c32
skinparam NoteBackgroundColor #576bb5
skinparam NoteFontColor #FFFFFF

skinparam SequenceBoxBorderColor #576bb5
skinparam SequenceLifelineBorderColor #576bb5
skinparam SequenceLifelineBackgroundColor #576bb5
skinparam ArrowColor #576bb5

participant "<$actor>\nOAX Holder\n(oh)" as oh
participant "<$gears>\nOAX\nToken Sale\nContract\n(ot)" as ot
participant "<$building_o>\nOAX\nFoundation\nMembership\nLogic\nContract\n(om)" as om
participant "<$building_o>\nOAX\nFoundation\nMembership\nState\nContract\n(os)" as os
participant "<$ma_wallet>\nOAX\nFoundation\nMembership\nWallet\n(ow)" as ow

title Membership Addition Flow

oh->ot: approve(//os//,//membershipFee//)
oh-->os:
note right of oh
approve //os// to
spend //$membershipFee//
amount of OAX tokens
that's owned by //oh//
end note

oh->om: addMember(//membershipType//)
activate om

om-->os: addMemberFor(//membershipType//,//oh//,//oh//)
activate os

os-->ot: allowance(//oh//,//os//)
note left of om
check if
allowance(oh,os)
is enough for
this specific
membership
type's fee
end note

alt Enough allowance

    os-->ot: transferFrom(//oh//,//ow//,//membershipFee//)
    oh-->ow: //membershipFee// amt of OAX token
    note right of oh
    Transfer membership fee
    from OAX holder account
    to membership contract.
    NOTE that //OAX Holder//
    allows //Membership State Contract//
    to spend on //Membership Wallet//,
    NOT on //itself//.
    end note

    alt Transfer successful

        os-->os: activate oh membership \n(OR at least mark oh as paid-membership-fee)
        note right of om
        i.e.
        members[//membershipType//][//oh//]
        set to true
        end note

        os-->om:
        om->oh: return successful status

    else Transfer NOT successful

        os-->os: abort
        os-->om:
        om->oh:

    end

else Not enough allowance

    os-->os: abort
    os-->om:
    om->oh:

end

deactivate os
deactivate om
@enduml