@startuml

'!define SHOW_PACKAGES
!include ../doc/dappsys.puml

!ifdef SHOW_PACKAGES
    package KycAmlRule.sol {
        interface KycAmlRule
    }

    package NoKycAmlRule.sol {
        class NoKycAmlRule
    }

    package KycAmlToken.sol {
        class KycAmlToken
    }

    package Gate.sol {
        class Gate
    }
!endif

interface KycAmlRule {
    canDeposit(asset, to)
    canTransfer(asset, from, to)
    canWidthdraw(asset, from)
}

class NoKycAmlRule {
}

class BoundaryKycAmlRule {
}

class FullKycAmlRule {
}

abstract class KycAmlToken {
    + KycAmlRule kycAmlRule
    + {field} (address => bool) kycVerified
    __
    + **KycAmlToken(kycAmlRule)**
    ~ modifier checkTransfer(from, to, value)
    ~ modifier checkDeposit(value)
    ~ modifier checkDepositTo(to, value)
    ~ modifier checkWithdraw(value)
    ~ modifier checkWithdrawFrom(from, value)
    + isKycVerified(guy)
}

class Gate {
    .. Inherited properties ..
    + DSAuthority authority
    + KycAmlRule kycAmlRule
    .. Own properties ..
    + {field} mapping(address => bool) kycVerified
    __
    + **Gate(authority, kycAmlRule)**
    + transferFrom(src, dst, wad)
    + checkTransfer(src, dst, wad)
    + setKycVerified(user, isKycVerified)
}

!ifndef DAPPSYS
    ERC20 <|-- DSTokenBase
    DSTokenBase <|-- DSToken
!endif

ERC20 <|-- KycAmlToken
KycAmlRule <|-- KycAmlToken
KycAmlRule <|-- NoKycAmlRule
KycAmlRule <|-- BoundaryKycAmlRule
KycAmlRule <|-- FullKycAmlRule
DSToken <|-- Gate
KycAmlToken <|-- Gate

Gate o-up- NoKycAmlRule
Gate o-up- BoundaryKycAmlRule
Gate o-up- FullKycAmlRule
Gate o- DSRoles

@enduml
