@startuml
title Asset Gateway v0.2

' We ignore KYC
' We ignore gas fees

actor "Sender\nperson/wallet" as s
actor "AGW operator" as adm
database "Asset Gateway\nsystem" as sys
control "Asset Gateway contract" as agw
'owner -> agw: deploy

== onboarding ==
s -> sys: register identity / wallet
sys --> sys: associate identity with wallet

== KYC ==
s -> sys: Submits KYC approval request
adm -> sys: check pending KYC requests
sys --> adm: pending requests
adm --> adm: Verifies KYC documents
adm -> agw: Mark the Eth Address with KYC Flag (Either None,Full or Boundary)

== deposit ==
s -> sys: notify deposit

adm -> sys: check pending deposits
sys --> adm: pending deposits
adm -> adm: confirm KYC
adm -> agw: mint tokens
agw --> : mint event

alt direct
    adm -> agw: transfer tokens
    agw --> s: transfer tokens
else two phase
    adm -> agw: approval for transfer
    agw --> : approval event
    s -> agw: call transferFrom
    agw --> s: transfer tokens
end

== withdraw ==
s -> sys: request withdrawal
adm -> sys: check pending withdrawals
sys --> adm: pending withdrawals

adm -> adm: confirm KYC
adm -> agw: burn tokens
agw --> : burn event
adm -> s: transfer fiat

@enduml
