@startuml
'!include ./dappsys.puml

!ifdef SHOW_PACKAGES
    package solovault.sol {
        interface DSSoloVault
    }
!endif

class DSSoloVault #white {
    + ERC20 token
    __
    + swap(ERC20 token_) //auth//
    + push(dst, wad)
    + pull(src, wad)
    + push(dst)
    + pull(src)
    + mint(wad)
    + burn(wad)
    + burn()
    .. Extensions ..
    + mint(guy, wad)
    + burn(guy, wad)
    + approve(guy, wad)
    + approve(guy)
}

DSAuth <|-- DSSoloVault

@enduml
